C:\Users\Stefanija\Desktop\ProtonMail\protonMail\protonMail\src\main\java\pom\Folders.java
C:\Users\Stefanija\Desktop\ProtonMail\protonMail\protonMail\src\main\java\data\TestData.java
C:\Users\Stefanija\Desktop\ProtonMail\protonMail\protonMail\src\main\java\drivers\Drivers.java
C:\Users\Stefanija\Desktop\ProtonMail\protonMail\protonMail\src\main\java\pom\Login.java
C:\Users\Stefanija\Desktop\ProtonMail\protonMail\protonMail\src\main\java\pom\LInks.java
